{"success":true,"message":"任务列表获取成功","data":{"content":[{"id":375,"processName":"测试任务_None","asinList":"B08XJ8J7SZ","requiredInfo":["price"],"platform":"Amazon","timeCycle":"daily","createTime":"2025-08-01T03:29:08.24822","updateTime":"2025-08-01T03:29:08.24822","status":"ACTIVE","userId":4,"username":"admin1155"},{"id":371,"processName":"并发测试","asinList":"B000000001","requiredInfo":["price"],"platform":"Amazon","timeCycle":"daily","createTime":"2025-08-01T03:29:07.262685","updateTime":"2025-08-01T03:29:07.262685","status":"ACTIVE","userId":4,"username":"admin1155"},{"id":367,"processName":"亚马逊监控","asinList":"B08XJ8J7SZ,B08LGD78Q5","requiredInfo":[],"platform":"Amazon","timeCycle":"daily","createTime":"2025-08-01T03:29:06.557906","updateTime":"2025-08-01T03:29:06.557906","status":"ACTIVE","userId":4,"username":"admin1155"},{"id":365,"processName":"亚马逊监控","asinList":"","requiredInfo":["price"],"platform":"Amazon","timeCycle":"daily","createTime":"2025-08-01T03:29:06.337777","updateTime":"2025-08-01T03:29:06.337777","status":"ACTIVE","userId":4,"username":"admin1155"},{"id":363,"processName":"格式错误测试","asinList":"B08XJ8J7SZ B08LGD78Q5","requiredInfo":["price"],"platform":"Amazon","timeCycle":"daily","createTime":"2025-08-01T03:29:05.891505","updateTime":"2025-08-01T03:29:05.891505","status":"ACTIVE","userId":4,"username":"admin1155"},{"id":361,"processName":"测试任务_k2j8yu","asinList":"B08XJ8J7SZ,B08LGD78Q5","requiredInfo":["price","review"],"platform":"Amazon","timeCycle":"daily","createTime":"2025-08-01T03:29:05.70175","updateTime":"2025-08-01T03:29:05.70175","status":"ACTIVE","userId":4,"username":"admin1155"},{"id":349,"processName":"并发测试","asinList":"B000000001","requiredInfo":["price"],"platform":"Amazon","timeCycle":"daily","createTime":"2025-08-01T03:20:48.441146","updateTime":"2025-08-01T03:20:48.441146","status":"ACTIVE","userId":4,"username":"admin1155"},{"id":345,"processName":"亚马逊监控","asinList":"B08XJ8J7SZ,B08LGD78Q5","requiredInfo":[],"platform":"Amazon","timeCycle":"daily","createTime":"2025-08-01T03:20:47.755764","updateTime":"2025-08-01T03:20:47.755764","status":"ACTIVE","userId":4,"username":"admin1155"},{"id":343,"processName":"亚马逊监控","asinList":"","requiredInfo":["price"],"platform":"Amazon","timeCycle":"daily","createTime":"2025-08-01T03:20:47.49778","updateTime":"2025-08-01T03:20:47.49778","status":"ACTIVE","userId":4,"username":"admin1155"},{"id":341,"processName":"格式错误测试","asinList":"B08XJ8J7SZ B08LGD78Q5","requiredInfo":["price"],"platform":"Amazon","timeCycle":"daily","createTime":"2025-08-01T03:20:47.050046","updateTime":"2025-08-01T03:20:47.050046","status":"ACTIVE","userId":4,"username":"admin1155"}],"pageable":{"pageNumber":0,"pageSize":10,"sort":{"empty":false,"sorted":true,"unsorted":false},"offset":0,"paged":true,"unpaged":false},"last":false,"totalElements":118,"totalPages":12,"size":10,"number":0,"first":true,"numberOfElements":10,"sort":{"empty":false,"sorted":true,"unsorted":false},"empty":false}}