{"success":true,"message":"任务列表获取成功","data":{"content":[{"id":507,"processName":"测试任务_None","asinList":"B08XJ8J7SZ","requiredInfo":["price"],"platform":"Amazon","timeCycle":"daily","createTime":"2025-08-01T03:48:03.702525","updateTime":"2025-08-01T03:48:03.702525","status":"ACTIVE","userId":4,"username":"admin1155"},{"id":503,"processName":"并发测试","asinList":"B000000001","requiredInfo":["price"],"platform":"Amazon","timeCycle":"daily","createTime":"2025-08-01T03:48:02.550206","updateTime":"2025-08-01T03:48:02.550206","status":"ACTIVE","userId":4,"username":"admin1155"},{"id":499,"processName":"亚马逊监控","asinList":"B08XJ8J7SZ,B08LGD78Q5","requiredInfo":[],"platform":"Amazon","timeCycle":"daily","createTime":"2025-08-01T03:48:01.903945","updateTime":"2025-08-01T03:48:01.903945","status":"ACTIVE","userId":4,"username":"admin1155"},{"id":497,"processName":"亚马逊监控","asinList":"","requiredInfo":["price"],"platform":"Amazon","timeCycle":"daily","createTime":"2025-08-01T03:48:01.688411","updateTime":"2025-08-01T03:48:01.688411","status":"ACTIVE","userId":4,"username":"admin1155"},{"id":495,"processName":"格式错误测试","asinList":"B08XJ8J7SZ B08LGD78Q5","requiredInfo":["price"],"platform":"Amazon","timeCycle":"daily","createTime":"2025-08-01T03:48:01.243475","updateTime":"2025-08-01T03:48:01.243475","status":"ACTIVE","userId":4,"username":"admin1155"},{"id":493,"processName":"测试任务_mawhah","asinList":"B08XJ8J7SZ,B08LGD78Q5","requiredInfo":["price","review"],"platform":"Amazon","timeCycle":"daily","createTime":"2025-08-01T03:48:00.992814","updateTime":"2025-08-01T03:48:00.992814","status":"ACTIVE","userId":4,"username":"admin1155"},{"id":481,"processName":"并发测试","asinList":"B000000001","requiredInfo":["price"],"platform":"Amazon","timeCycle":"daily","createTime":"2025-08-01T03:43:04.720641","updateTime":"2025-08-01T03:43:04.720641","status":"ACTIVE","userId":4,"username":"admin1155"},{"id":477,"processName":"亚马逊监控","asinList":"B08XJ8J7SZ,B08LGD78Q5","requiredInfo":[],"platform":"Amazon","timeCycle":"daily","createTime":"2025-08-01T03:43:04.043703","updateTime":"2025-08-01T03:43:04.043703","status":"ACTIVE","userId":4,"username":"admin1155"},{"id":475,"processName":"亚马逊监控","asinList":"","requiredInfo":["price"],"platform":"Amazon","timeCycle":"daily","createTime":"2025-08-01T03:43:03.836182","updateTime":"2025-08-01T03:43:03.836182","status":"ACTIVE","userId":4,"username":"admin1155"},{"id":473,"processName":"格式错误测试","asinList":"B08XJ8J7SZ B08LGD78Q5","requiredInfo":["price"],"platform":"Amazon","timeCycle":"daily","createTime":"2025-08-01T03:43:03.397441","updateTime":"2025-08-01T03:43:03.397441","status":"ACTIVE","userId":4,"username":"admin1155"}],"pageable":{"pageNumber":0,"pageSize":10,"sort":{"empty":false,"sorted":true,"unsorted":false},"offset":0,"paged":true,"unpaged":false},"last":false,"totalElements":148,"totalPages":15,"size":10,"number":0,"first":true,"numberOfElements":10,"sort":{"empty":false,"sorted":true,"unsorted":false},"empty":false}}