{"success":true,"message":"任务列表获取成功","data":{"content":[{"id":485,"processName":"测试任务_None","asinList":"B08XJ8J7SZ","requiredInfo":["price"],"platform":"Amazon","timeCycle":"daily","createTime":"2025-08-01T03:43:05.512833","updateTime":"2025-08-01T03:43:05.512833","status":"ACTIVE","userId":4,"username":"admin1155"},{"id":481,"processName":"并发测试","asinList":"B000000001","requiredInfo":["price"],"platform":"Amazon","timeCycle":"daily","createTime":"2025-08-01T03:43:04.720641","updateTime":"2025-08-01T03:43:04.720641","status":"ACTIVE","userId":4,"username":"admin1155"},{"id":477,"processName":"亚马逊监控","asinList":"B08XJ8J7SZ,B08LGD78Q5","requiredInfo":[],"platform":"Amazon","timeCycle":"daily","createTime":"2025-08-01T03:43:04.043703","updateTime":"2025-08-01T03:43:04.043703","status":"ACTIVE","userId":4,"username":"admin1155"},{"id":475,"processName":"亚马逊监控","asinList":"","requiredInfo":["price"],"platform":"Amazon","timeCycle":"daily","createTime":"2025-08-01T03:43:03.836182","updateTime":"2025-08-01T03:43:03.836182","status":"ACTIVE","userId":4,"username":"admin1155"},{"id":473,"processName":"格式错误测试","asinList":"B08XJ8J7SZ B08LGD78Q5","requiredInfo":["price"],"platform":"Amazon","timeCycle":"daily","createTime":"2025-08-01T03:43:03.397441","updateTime":"2025-08-01T03:43:03.397441","status":"ACTIVE","userId":4,"username":"admin1155"},{"id":471,"processName":"测试任务_lxwake","asinList":"B08XJ8J7SZ,B08LGD78Q5","requiredInfo":["price","review"],"platform":"Amazon","timeCycle":"daily","createTime":"2025-08-01T03:43:03.172936","updateTime":"2025-08-01T03:43:03.172936","status":"ACTIVE","userId":4,"username":"admin1155"},{"id":459,"processName":"并发测试","asinList":"B000000001","requiredInfo":["price"],"platform":"Amazon","timeCycle":"daily","createTime":"2025-08-01T03:36:38.210706","updateTime":"2025-08-01T03:36:38.210706","status":"ACTIVE","userId":4,"username":"admin1155"},{"id":455,"processName":"亚马逊监控","asinList":"B08XJ8J7SZ,B08LGD78Q5","requiredInfo":[],"platform":"Amazon","timeCycle":"daily","createTime":"2025-08-01T03:36:37.495784","updateTime":"2025-08-01T03:36:37.495784","status":"ACTIVE","userId":4,"username":"admin1155"},{"id":453,"processName":"亚马逊监控","asinList":"","requiredInfo":["price"],"platform":"Amazon","timeCycle":"daily","createTime":"2025-08-01T03:36:37.247629","updateTime":"2025-08-01T03:36:37.247629","status":"ACTIVE","userId":4,"username":"admin1155"},{"id":451,"processName":"格式错误测试","asinList":"B08XJ8J7SZ B08LGD78Q5","requiredInfo":["price"],"platform":"Amazon","timeCycle":"daily","createTime":"2025-08-01T03:36:36.740367","updateTime":"2025-08-01T03:36:36.740367","status":"ACTIVE","userId":4,"username":"admin1155"}],"pageable":{"pageNumber":0,"pageSize":10,"sort":{"empty":false,"sorted":true,"unsorted":false},"offset":0,"paged":true,"unpaged":false},"last":false,"totalElements":143,"totalPages":15,"size":10,"number":0,"first":true,"numberOfElements":10,"sort":{"empty":false,"sorted":true,"unsorted":false},"empty":false}}