{"success":true,"message":"任务列表获取成功","data":{"content":[{"id":397,"processName":"测试任务_None","asinList":"B08XJ8J7SZ","requiredInfo":["price"],"platform":"Amazon","timeCycle":"daily","createTime":"2025-08-01T03:31:37.898256","updateTime":"2025-08-01T03:31:37.898256","status":"ACTIVE","userId":4,"username":"admin1155"},{"id":393,"processName":"并发测试","asinList":"B000000001","requiredInfo":["price"],"platform":"Amazon","timeCycle":"daily","createTime":"2025-08-01T03:31:37.094861","updateTime":"2025-08-01T03:31:37.094861","status":"ACTIVE","userId":4,"username":"admin1155"},{"id":389,"processName":"亚马逊监控","asinList":"B08XJ8J7SZ,B08LGD78Q5","requiredInfo":[],"platform":"Amazon","timeCycle":"daily","createTime":"2025-08-01T03:31:36.457523","updateTime":"2025-08-01T03:31:36.457523","status":"ACTIVE","userId":4,"username":"admin1155"},{"id":387,"processName":"亚马逊监控","asinList":"","requiredInfo":["price"],"platform":"Amazon","timeCycle":"daily","createTime":"2025-08-01T03:31:36.261053","updateTime":"2025-08-01T03:31:36.261053","status":"ACTIVE","userId":4,"username":"admin1155"},{"id":385,"processName":"格式错误测试","asinList":"B08XJ8J7SZ B08LGD78Q5","requiredInfo":["price"],"platform":"Amazon","timeCycle":"daily","createTime":"2025-08-01T03:31:35.7744","updateTime":"2025-08-01T03:31:35.7744","status":"ACTIVE","userId":4,"username":"admin1155"},{"id":383,"processName":"测试任务_qo7glt","asinList":"B08XJ8J7SZ,B08LGD78Q5","requiredInfo":["price","review"],"platform":"Amazon","timeCycle":"daily","createTime":"2025-08-01T03:31:35.596196","updateTime":"2025-08-01T03:31:35.596196","status":"ACTIVE","userId":4,"username":"admin1155"},{"id":371,"processName":"并发测试","asinList":"B000000001","requiredInfo":["price"],"platform":"Amazon","timeCycle":"daily","createTime":"2025-08-01T03:29:07.262685","updateTime":"2025-08-01T03:29:07.262685","status":"ACTIVE","userId":4,"username":"admin1155"},{"id":367,"processName":"亚马逊监控","asinList":"B08XJ8J7SZ,B08LGD78Q5","requiredInfo":[],"platform":"Amazon","timeCycle":"daily","createTime":"2025-08-01T03:29:06.557906","updateTime":"2025-08-01T03:29:06.557906","status":"ACTIVE","userId":4,"username":"admin1155"},{"id":365,"processName":"亚马逊监控","asinList":"","requiredInfo":["price"],"platform":"Amazon","timeCycle":"daily","createTime":"2025-08-01T03:29:06.337777","updateTime":"2025-08-01T03:29:06.337777","status":"ACTIVE","userId":4,"username":"admin1155"},{"id":363,"processName":"格式错误测试","asinList":"B08XJ8J7SZ B08LGD78Q5","requiredInfo":["price"],"platform":"Amazon","timeCycle":"daily","createTime":"2025-08-01T03:29:05.891505","updateTime":"2025-08-01T03:29:05.891505","status":"ACTIVE","userId":4,"username":"admin1155"}],"pageable":{"pageNumber":0,"pageSize":10,"sort":{"empty":false,"sorted":true,"unsorted":false},"offset":0,"paged":true,"unpaged":false},"last":false,"totalElements":123,"totalPages":13,"size":10,"number":0,"first":true,"numberOfElements":10,"sort":{"empty":false,"sorted":true,"unsorted":false},"empty":false}}