{"success":true,"message":"任务列表获取成功","data":{"content":[{"id":419,"processName":"测试任务_None","asinList":"B08XJ8J7SZ","requiredInfo":["price"],"platform":"Amazon","timeCycle":"daily","createTime":"2025-08-01T03:35:28.67104","updateTime":"2025-08-01T03:35:28.67104","status":"ACTIVE","userId":4,"username":"admin1155"},{"id":415,"processName":"并发测试","asinList":"B000000001","requiredInfo":["price"],"platform":"Amazon","timeCycle":"daily","createTime":"2025-08-01T03:35:27.722514","updateTime":"2025-08-01T03:35:27.722514","status":"ACTIVE","userId":4,"username":"admin1155"},{"id":411,"processName":"亚马逊监控","asinList":"B08XJ8J7SZ,B08LGD78Q5","requiredInfo":[],"platform":"Amazon","timeCycle":"daily","createTime":"2025-08-01T03:35:26.688148","updateTime":"2025-08-01T03:35:26.688148","status":"ACTIVE","userId":4,"username":"admin1155"},{"id":409,"processName":"亚马逊监控","asinList":"","requiredInfo":["price"],"platform":"Amazon","timeCycle":"daily","createTime":"2025-08-01T03:35:26.456848","updateTime":"2025-08-01T03:35:26.456848","status":"ACTIVE","userId":4,"username":"admin1155"},{"id":407,"processName":"格式错误测试","asinList":"B08XJ8J7SZ B08LGD78Q5","requiredInfo":["price"],"platform":"Amazon","timeCycle":"daily","createTime":"2025-08-01T03:35:26.031767","updateTime":"2025-08-01T03:35:26.031767","status":"ACTIVE","userId":4,"username":"admin1155"},{"id":405,"processName":"测试任务_ahsx15","asinList":"B08XJ8J7SZ,B08LGD78Q5","requiredInfo":["price","review"],"platform":"Amazon","timeCycle":"daily","createTime":"2025-08-01T03:35:25.819566","updateTime":"2025-08-01T03:35:25.819566","status":"ACTIVE","userId":4,"username":"admin1155"},{"id":393,"processName":"并发测试","asinList":"B000000001","requiredInfo":["price"],"platform":"Amazon","timeCycle":"daily","createTime":"2025-08-01T03:31:37.094861","updateTime":"2025-08-01T03:31:37.094861","status":"ACTIVE","userId":4,"username":"admin1155"},{"id":389,"processName":"亚马逊监控","asinList":"B08XJ8J7SZ,B08LGD78Q5","requiredInfo":[],"platform":"Amazon","timeCycle":"daily","createTime":"2025-08-01T03:31:36.457523","updateTime":"2025-08-01T03:31:36.457523","status":"ACTIVE","userId":4,"username":"admin1155"},{"id":387,"processName":"亚马逊监控","asinList":"","requiredInfo":["price"],"platform":"Amazon","timeCycle":"daily","createTime":"2025-08-01T03:31:36.261053","updateTime":"2025-08-01T03:31:36.261053","status":"ACTIVE","userId":4,"username":"admin1155"},{"id":385,"processName":"格式错误测试","asinList":"B08XJ8J7SZ B08LGD78Q5","requiredInfo":["price"],"platform":"Amazon","timeCycle":"daily","createTime":"2025-08-01T03:31:35.7744","updateTime":"2025-08-01T03:31:35.7744","status":"ACTIVE","userId":4,"username":"admin1155"}],"pageable":{"pageNumber":0,"pageSize":10,"sort":{"empty":false,"sorted":true,"unsorted":false},"offset":0,"paged":true,"unpaged":false},"last":false,"totalElements":128,"totalPages":13,"size":10,"number":0,"first":true,"numberOfElements":10,"sort":{"empty":false,"sorted":true,"unsorted":false},"empty":false}}