{"success":true,"message":"任务列表获取成功","data":{"content":[{"id":463,"processName":"测试任务_None","asinList":"B08XJ8J7SZ","requiredInfo":["price"],"platform":"Amazon","timeCycle":"daily","createTime":"2025-08-01T03:36:39.032161","updateTime":"2025-08-01T03:36:39.032161","status":"ACTIVE","userId":4,"username":"admin1155"},{"id":459,"processName":"并发测试","asinList":"B000000001","requiredInfo":["price"],"platform":"Amazon","timeCycle":"daily","createTime":"2025-08-01T03:36:38.210706","updateTime":"2025-08-01T03:36:38.210706","status":"ACTIVE","userId":4,"username":"admin1155"},{"id":455,"processName":"亚马逊监控","asinList":"B08XJ8J7SZ,B08LGD78Q5","requiredInfo":[],"platform":"Amazon","timeCycle":"daily","createTime":"2025-08-01T03:36:37.495784","updateTime":"2025-08-01T03:36:37.495784","status":"ACTIVE","userId":4,"username":"admin1155"},{"id":453,"processName":"亚马逊监控","asinList":"","requiredInfo":["price"],"platform":"Amazon","timeCycle":"daily","createTime":"2025-08-01T03:36:37.247629","updateTime":"2025-08-01T03:36:37.247629","status":"ACTIVE","userId":4,"username":"admin1155"},{"id":451,"processName":"格式错误测试","asinList":"B08XJ8J7SZ B08LGD78Q5","requiredInfo":["price"],"platform":"Amazon","timeCycle":"daily","createTime":"2025-08-01T03:36:36.740367","updateTime":"2025-08-01T03:36:36.740367","status":"ACTIVE","userId":4,"username":"admin1155"},{"id":449,"processName":"测试任务_omhlvb","asinList":"B08XJ8J7SZ,B08LGD78Q5","requiredInfo":["price","review"],"platform":"Amazon","timeCycle":"daily","createTime":"2025-08-01T03:36:36.558029","updateTime":"2025-08-01T03:36:36.558029","status":"ACTIVE","userId":4,"username":"admin1155"},{"id":437,"processName":"并发测试","asinList":"B000000001","requiredInfo":["price"],"platform":"Amazon","timeCycle":"daily","createTime":"2025-08-01T03:36:12.557421","updateTime":"2025-08-01T03:36:12.557421","status":"ACTIVE","userId":4,"username":"admin1155"},{"id":433,"processName":"亚马逊监控","asinList":"B08XJ8J7SZ,B08LGD78Q5","requiredInfo":[],"platform":"Amazon","timeCycle":"daily","createTime":"2025-08-01T03:36:11.642734","updateTime":"2025-08-01T03:36:11.642734","status":"ACTIVE","userId":4,"username":"admin1155"},{"id":431,"processName":"亚马逊监控","asinList":"","requiredInfo":["price"],"platform":"Amazon","timeCycle":"daily","createTime":"2025-08-01T03:36:11.41238","updateTime":"2025-08-01T03:36:11.41238","status":"ACTIVE","userId":4,"username":"admin1155"},{"id":429,"processName":"格式错误测试","asinList":"B08XJ8J7SZ B08LGD78Q5","requiredInfo":["price"],"platform":"Amazon","timeCycle":"daily","createTime":"2025-08-01T03:36:10.966696","updateTime":"2025-08-01T03:36:10.966696","status":"ACTIVE","userId":4,"username":"admin1155"}],"pageable":{"pageNumber":0,"pageSize":10,"sort":{"empty":false,"sorted":true,"unsorted":false},"offset":0,"paged":true,"unpaged":false},"last":false,"totalElements":138,"totalPages":14,"size":10,"number":0,"first":true,"numberOfElements":10,"sort":{"empty":false,"sorted":true,"unsorted":false},"empty":false}}