{"success":true,"message":"任务列表获取成功","data":{"content":[{"id":265,"processName":"测试任务_None","asinList":"B08XJ8J7SZ","requiredInfo":["price"],"platform":"Amazon","timeCycle":"daily","createTime":"2025-08-01T02:50:40.92158","updateTime":"2025-08-01T02:50:40.92158","status":"ACTIVE","userId":4,"username":"admin1155"},{"id":261,"processName":"并发测试","asinList":"B000000001","requiredInfo":["price"],"platform":"Amazon","timeCycle":"daily","createTime":"2025-08-01T02:50:39.081252","updateTime":"2025-08-01T02:50:39.081252","status":"ACTIVE","userId":4,"username":"admin1155"},{"id":257,"processName":"亚马逊监控","asinList":"B08XJ8J7SZ,B08LGD78Q5","requiredInfo":[],"platform":"Amazon","timeCycle":"daily","createTime":"2025-08-01T02:50:37.561067","updateTime":"2025-08-01T02:50:37.561067","status":"ACTIVE","userId":4,"username":"admin1155"},{"id":255,"processName":"亚马逊监控","asinList":"","requiredInfo":["price"],"platform":"Amazon","timeCycle":"daily","createTime":"2025-08-01T02:50:37.148998","updateTime":"2025-08-01T02:50:37.148998","status":"ACTIVE","userId":4,"username":"admin1155"},{"id":253,"processName":"格式错误测试","asinList":"B08XJ8J7SZ B08LGD78Q5","requiredInfo":["price"],"platform":"Amazon","timeCycle":"daily","createTime":"2025-08-01T02:50:35.894171","updateTime":"2025-08-01T02:50:35.894171","status":"ACTIVE","userId":4,"username":"admin1155"},{"id":251,"processName":"测试任务_251icl","asinList":"B08XJ8J7SZ,B08LGD78Q5","requiredInfo":["price","review"],"platform":"Amazon","timeCycle":"daily","createTime":"2025-08-01T02:50:35.40534","updateTime":"2025-08-01T02:50:35.40534","status":"ACTIVE","userId":4,"username":"admin1155"},{"id":248,"processName":"并发测试","asinList":"B000000001","requiredInfo":["price"],"platform":"Amazon","timeCycle":"daily","createTime":"2025-08-01T02:38:30.882206","updateTime":"2025-08-01T02:38:30.882206","status":"ACTIVE","userId":4,"username":"admin1155"},{"id":247,"processName":"亚马逊监控","asinList":"B08XJ8J7SZ,B08LGD78Q5","requiredInfo":[],"platform":"Amazon","timeCycle":"daily","createTime":"2025-08-01T02:38:29.946706","updateTime":"2025-08-01T02:38:29.946706","status":"ACTIVE","userId":4,"username":"admin1155"},{"id":246,"processName":"亚马逊监控","asinList":"","requiredInfo":["price"],"platform":"Amazon","timeCycle":"daily","createTime":"2025-08-01T02:38:29.678442","updateTime":"2025-08-01T02:38:29.678442","status":"ACTIVE","userId":4,"username":"admin1155"},{"id":245,"processName":"格式错误测试","asinList":"B08XJ8J7SZ B08LGD78Q5","requiredInfo":["price"],"platform":"Amazon","timeCycle":"daily","createTime":"2025-08-01T02:38:28.711214","updateTime":"2025-08-01T02:38:28.711214","status":"ACTIVE","userId":4,"username":"admin1155"}],"pageable":{"pageNumber":0,"pageSize":10,"sort":{"empty":false,"sorted":true,"unsorted":false},"offset":0,"paged":true,"unpaged":false},"last":false,"totalElements":93,"totalPages":10,"size":10,"number":0,"first":true,"numberOfElements":10,"sort":{"empty":false,"sorted":true,"unsorted":false},"empty":false}}