{"success":true,"message":"任务列表获取成功","data":{"content":[{"id":441,"processName":"测试任务_None","asinList":"B08XJ8J7SZ","requiredInfo":["price"],"platform":"Amazon","timeCycle":"daily","createTime":"2025-08-01T03:36:13.441275","updateTime":"2025-08-01T03:36:13.441275","status":"ACTIVE","userId":4,"username":"admin1155"},{"id":437,"processName":"并发测试","asinList":"B000000001","requiredInfo":["price"],"platform":"Amazon","timeCycle":"daily","createTime":"2025-08-01T03:36:12.557421","updateTime":"2025-08-01T03:36:12.557421","status":"ACTIVE","userId":4,"username":"admin1155"},{"id":433,"processName":"亚马逊监控","asinList":"B08XJ8J7SZ,B08LGD78Q5","requiredInfo":[],"platform":"Amazon","timeCycle":"daily","createTime":"2025-08-01T03:36:11.642734","updateTime":"2025-08-01T03:36:11.642734","status":"ACTIVE","userId":4,"username":"admin1155"},{"id":431,"processName":"亚马逊监控","asinList":"","requiredInfo":["price"],"platform":"Amazon","timeCycle":"daily","createTime":"2025-08-01T03:36:11.41238","updateTime":"2025-08-01T03:36:11.41238","status":"ACTIVE","userId":4,"username":"admin1155"},{"id":429,"processName":"格式错误测试","asinList":"B08XJ8J7SZ B08LGD78Q5","requiredInfo":["price"],"platform":"Amazon","timeCycle":"daily","createTime":"2025-08-01T03:36:10.966696","updateTime":"2025-08-01T03:36:10.966696","status":"ACTIVE","userId":4,"username":"admin1155"},{"id":427,"processName":"测试任务_1fksni","asinList":"B08XJ8J7SZ,B08LGD78Q5","requiredInfo":["price","review"],"platform":"Amazon","timeCycle":"daily","createTime":"2025-08-01T03:36:10.749903","updateTime":"2025-08-01T03:36:10.749903","status":"ACTIVE","userId":4,"username":"admin1155"},{"id":415,"processName":"并发测试","asinList":"B000000001","requiredInfo":["price"],"platform":"Amazon","timeCycle":"daily","createTime":"2025-08-01T03:35:27.722514","updateTime":"2025-08-01T03:35:27.722514","status":"ACTIVE","userId":4,"username":"admin1155"},{"id":411,"processName":"亚马逊监控","asinList":"B08XJ8J7SZ,B08LGD78Q5","requiredInfo":[],"platform":"Amazon","timeCycle":"daily","createTime":"2025-08-01T03:35:26.688148","updateTime":"2025-08-01T03:35:26.688148","status":"ACTIVE","userId":4,"username":"admin1155"},{"id":409,"processName":"亚马逊监控","asinList":"","requiredInfo":["price"],"platform":"Amazon","timeCycle":"daily","createTime":"2025-08-01T03:35:26.456848","updateTime":"2025-08-01T03:35:26.456848","status":"ACTIVE","userId":4,"username":"admin1155"},{"id":407,"processName":"格式错误测试","asinList":"B08XJ8J7SZ B08LGD78Q5","requiredInfo":["price"],"platform":"Amazon","timeCycle":"daily","createTime":"2025-08-01T03:35:26.031767","updateTime":"2025-08-01T03:35:26.031767","status":"ACTIVE","userId":4,"username":"admin1155"}],"pageable":{"pageNumber":0,"pageSize":10,"sort":{"empty":false,"sorted":true,"unsorted":false},"offset":0,"paged":true,"unpaged":false},"last":false,"totalElements":133,"totalPages":14,"size":10,"number":0,"first":true,"numberOfElements":10,"sort":{"empty":false,"sorted":true,"unsorted":false},"empty":false}}