{"success":true,"message":"任务列表获取成功","data":{"content":[{"id":249,"processName":"测试任务","asinList":"B08XJ8J7SZ","requiredInfo":["price"],"platform":"Amazon","timeCycle":"daily","createTime":"2025-08-01T02:38:31.270585","updateTime":"2025-08-01T02:38:31.270585","status":"ACTIVE","userId":4,"username":"admin1155"},{"id":248,"processName":"并发测试","asinList":"B000000001","requiredInfo":["price"],"platform":"Amazon","timeCycle":"daily","createTime":"2025-08-01T02:38:30.882206","updateTime":"2025-08-01T02:38:30.882206","status":"ACTIVE","userId":4,"username":"admin1155"},{"id":247,"processName":"亚马逊监控","asinList":"B08XJ8J7SZ,B08LGD78Q5","requiredInfo":[],"platform":"Amazon","timeCycle":"daily","createTime":"2025-08-01T02:38:29.946706","updateTime":"2025-08-01T02:38:29.946706","status":"ACTIVE","userId":4,"username":"admin1155"},{"id":246,"processName":"亚马逊监控","asinList":"","requiredInfo":["price"],"platform":"Amazon","timeCycle":"daily","createTime":"2025-08-01T02:38:29.678442","updateTime":"2025-08-01T02:38:29.678442","status":"ACTIVE","userId":4,"username":"admin1155"},{"id":245,"processName":"格式错误测试","asinList":"B08XJ8J7SZ B08LGD78Q5","requiredInfo":["price"],"platform":"Amazon","timeCycle":"daily","createTime":"2025-08-01T02:38:28.711214","updateTime":"2025-08-01T02:38:28.711214","status":"ACTIVE","userId":4,"username":"admin1155"},{"id":244,"processName":"测试任务_qj6php","asinList":"B08XJ8J7SZ,B08LGD78Q5","requiredInfo":["price","review"],"platform":"Amazon","timeCycle":"daily","createTime":"2025-08-01T02:38:28.286475","updateTime":"2025-08-01T02:38:28.286475","status":"ACTIVE","userId":4,"username":"admin1155"},{"id":242,"processName":"并发测试","asinList":"B000000001","requiredInfo":["price"],"platform":"Amazon","timeCycle":"daily","createTime":"2025-08-01T02:36:19.765199","updateTime":"2025-08-01T02:36:19.765199","status":"ACTIVE","userId":4,"username":"admin1155"},{"id":241,"processName":"亚马逊监控","asinList":"B08XJ8J7SZ,B08LGD78Q5","requiredInfo":[],"platform":"Amazon","timeCycle":"daily","createTime":"2025-08-01T02:36:18.492063","updateTime":"2025-08-01T02:36:18.492063","status":"ACTIVE","userId":4,"username":"admin1155"},{"id":240,"processName":"亚马逊监控","asinList":"","requiredInfo":["price"],"platform":"Amazon","timeCycle":"daily","createTime":"2025-08-01T02:36:18.009476","updateTime":"2025-08-01T02:36:18.009476","status":"ACTIVE","userId":4,"username":"admin1155"},{"id":239,"processName":"格式错误测试","asinList":"B08XJ8J7SZ B08LGD78Q5","requiredInfo":["price"],"platform":"Amazon","timeCycle":"daily","createTime":"2025-08-01T02:36:17.064734","updateTime":"2025-08-01T02:36:17.064734","status":"ACTIVE","userId":4,"username":"admin1155"}],"pageable":{"pageNumber":0,"pageSize":10,"sort":{"empty":false,"sorted":true,"unsorted":false},"offset":0,"paged":true,"unpaged":false},"last":false,"totalElements":88,"totalPages":9,"size":10,"number":0,"first":true,"numberOfElements":10,"sort":{"empty":false,"sorted":true,"unsorted":false},"empty":false}}