{"success":true,"message":"任务列表获取成功","data":{"content":[{"id":573,"processName":"测试任务_None","asinList":"B08XJ8J7SZ","requiredInfo":["price"],"platform":"Amazon","timeCycle":"daily","createTime":"2025-08-08T10:53:16.968833","updateTime":"2025-08-08T10:53:16.968833","status":"ACTIVE","userId":4,"username":"admin1155"},{"id":569,"processName":"并发测试","asinList":"B000000001","requiredInfo":["price"],"platform":"Amazon","timeCycle":"daily","createTime":"2025-08-08T10:53:15.251084","updateTime":"2025-08-08T10:53:15.251084","status":"ACTIVE","userId":4,"username":"admin1155"},{"id":565,"processName":"亚马逊监控","asinList":"B08XJ8J7SZ,B08LGD78Q5","requiredInfo":[],"platform":"Amazon","timeCycle":"daily","createTime":"2025-08-08T10:53:13.772853","updateTime":"2025-08-08T10:53:13.772853","status":"ACTIVE","userId":4,"username":"admin1155"},{"id":563,"processName":"亚马逊监控","asinList":"","requiredInfo":["price"],"platform":"Amazon","timeCycle":"daily","createTime":"2025-08-08T10:53:13.371029","updateTime":"2025-08-08T10:53:13.371029","status":"ACTIVE","userId":4,"username":"admin1155"},{"id":561,"processName":"格式错误测试","asinList":"B08XJ8J7SZ B08LGD78Q5","requiredInfo":["price"],"platform":"Amazon","timeCycle":"daily","createTime":"2025-08-08T10:53:12.337257","updateTime":"2025-08-08T10:53:12.337257","status":"ACTIVE","userId":4,"username":"admin1155"},{"id":559,"processName":"测试任务_bagiu2","asinList":"B08XJ8J7SZ,B08LGD78Q5","requiredInfo":["price","review"],"platform":"Amazon","timeCycle":"daily","createTime":"2025-08-08T10:53:11.923242","updateTime":"2025-08-08T10:53:11.923242","status":"ACTIVE","userId":4,"username":"admin1155"},{"id":557,"processName":"测试任务_None","asinList":"B08XJ8J7SZ","requiredInfo":["price"],"platform":"Amazon","timeCycle":"daily","createTime":"2025-08-08T10:41:01.12597","updateTime":"2025-08-08T10:41:01.12597","status":"ACTIVE","userId":4,"username":"admin1155"},{"id":547,"processName":"并发测试","asinList":"B000000001","requiredInfo":["price"],"platform":"Amazon","timeCycle":"daily","createTime":"2025-08-08T10:40:54.611308","updateTime":"2025-08-08T10:40:54.611308","status":"ACTIVE","userId":4,"username":"admin1155"},{"id":543,"processName":"亚马逊监控","asinList":"B08XJ8J7SZ,B08LGD78Q5","requiredInfo":[],"platform":"Amazon","timeCycle":"daily","createTime":"2025-08-08T10:40:53.081923","updateTime":"2025-08-08T10:40:53.081923","status":"ACTIVE","userId":4,"username":"admin1155"},{"id":541,"processName":"亚马逊监控","asinList":"","requiredInfo":["price"],"platform":"Amazon","timeCycle":"daily","createTime":"2025-08-08T10:40:52.517191","updateTime":"2025-08-08T10:40:52.517191","status":"ACTIVE","userId":4,"username":"admin1155"}],"pageable":{"pageNumber":0,"pageSize":10,"sort":{"sorted":true,"empty":false,"unsorted":false},"offset":0,"paged":true,"unpaged":false},"last":false,"totalElements":165,"totalPages":17,"size":10,"number":0,"first":true,"numberOfElements":10,"sort":{"sorted":true,"empty":false,"unsorted":false},"empty":false}}