{"success":true,"message":"任务列表获取成功","data":{"content":[{"id":551,"processName":"测试任务_None","asinList":"B08XJ8J7SZ","requiredInfo":["price"],"platform":"Amazon","timeCycle":"daily","createTime":"2025-08-08T10:40:56.346805","updateTime":"2025-08-08T10:40:56.346805","status":"ACTIVE","userId":4,"username":"admin1155"},{"id":547,"processName":"并发测试","asinList":"B000000001","requiredInfo":["price"],"platform":"Amazon","timeCycle":"daily","createTime":"2025-08-08T10:40:54.611308","updateTime":"2025-08-08T10:40:54.611308","status":"ACTIVE","userId":4,"username":"admin1155"},{"id":543,"processName":"亚马逊监控","asinList":"B08XJ8J7SZ,B08LGD78Q5","requiredInfo":[],"platform":"Amazon","timeCycle":"daily","createTime":"2025-08-08T10:40:53.081923","updateTime":"2025-08-08T10:40:53.081923","status":"ACTIVE","userId":4,"username":"admin1155"},{"id":541,"processName":"亚马逊监控","asinList":"","requiredInfo":["price"],"platform":"Amazon","timeCycle":"daily","createTime":"2025-08-08T10:40:52.517191","updateTime":"2025-08-08T10:40:52.517191","status":"ACTIVE","userId":4,"username":"admin1155"},{"id":539,"processName":"格式错误测试","asinList":"B08XJ8J7SZ B08LGD78Q5","requiredInfo":["price"],"platform":"Amazon","timeCycle":"daily","createTime":"2025-08-08T10:40:51.409639","updateTime":"2025-08-08T10:40:51.409639","status":"ACTIVE","userId":4,"username":"admin1155"},{"id":537,"processName":"测试任务_luz1gn","asinList":"B08XJ8J7SZ,B08LGD78Q5","requiredInfo":["price","review"],"platform":"Amazon","timeCycle":"daily","createTime":"2025-08-08T10:40:50.60938","updateTime":"2025-08-08T10:40:50.60938","status":"ACTIVE","userId":4,"username":"admin1155"},{"id":535,"processName":"测试任务_None","asinList":"B08XJ8J7SZ","requiredInfo":["price"],"platform":"Amazon","timeCycle":"daily","createTime":"2025-08-08T10:38:05.443135","updateTime":"2025-08-08T10:38:05.443135","status":"ACTIVE","userId":4,"username":"admin1155"},{"id":525,"processName":"并发测试","asinList":"B000000001","requiredInfo":["price"],"platform":"Amazon","timeCycle":"daily","createTime":"2025-08-08T10:37:57.984203","updateTime":"2025-08-08T10:37:57.984203","status":"ACTIVE","userId":4,"username":"admin1155"},{"id":521,"processName":"亚马逊监控","asinList":"B08XJ8J7SZ,B08LGD78Q5","requiredInfo":[],"platform":"Amazon","timeCycle":"daily","createTime":"2025-08-08T10:37:56.487646","updateTime":"2025-08-08T10:37:56.487646","status":"ACTIVE","userId":4,"username":"admin1155"},{"id":519,"processName":"亚马逊监控","asinList":"","requiredInfo":["price"],"platform":"Amazon","timeCycle":"daily","createTime":"2025-08-08T10:37:56.124967","updateTime":"2025-08-08T10:37:56.124967","status":"ACTIVE","userId":4,"username":"admin1155"}],"pageable":{"pageNumber":0,"pageSize":10,"sort":{"sorted":true,"empty":false,"unsorted":false},"offset":0,"paged":true,"unpaged":false},"last":false,"totalElements":159,"totalPages":16,"size":10,"number":0,"first":true,"numberOfElements":10,"sort":{"sorted":true,"empty":false,"unsorted":false},"empty":false}}