{"success":true,"message":"任务列表获取成功","data":{"content":[{"id":930,"processName":"测试任务_None","asinList":"B08XJ8J7SZ","requiredInfo":["price"],"platform":"Amazon","timeCycle":"daily","createTime":"2025-08-12T13:02:07.278436","updateTime":"2025-08-12T13:02:07.278436","status":"ACTIVE","userId":4,"username":"admin1155"},{"id":926,"processName":"并发测试","asinList":"B000000001","requiredInfo":["price"],"platform":"Amazon","timeCycle":"daily","createTime":"2025-08-12T13:02:05.519847","updateTime":"2025-08-12T13:02:05.519847","status":"ACTIVE","userId":4,"username":"admin1155"},{"id":919,"processName":"测试任务_gh9fa6","asinList":"B08XJ8J7SZ,B08LGD78Q5","requiredInfo":["price","review"],"platform":"Amazon","timeCycle":"daily","createTime":"2025-08-12T13:02:03.329224","updateTime":"2025-08-12T13:02:03.329224","status":"ACTIVE","userId":4,"username":"admin1155"},{"id":907,"processName":"并发测试","asinList":"B000000001","requiredInfo":["price"],"platform":"Amazon","timeCycle":"daily","createTime":"2025-08-12T12:07:18.499138","updateTime":"2025-08-12T12:07:18.499138","status":"ACTIVE","userId":4,"username":"admin1155"},{"id":900,"processName":"测试任务_7r5lgb","asinList":"B08XJ8J7SZ,B08LGD78Q5","requiredInfo":["price","review"],"platform":"Amazon","timeCycle":"daily","createTime":"2025-08-12T12:07:16.469595","updateTime":"2025-08-12T12:07:16.469595","status":"ACTIVE","userId":4,"username":"admin1155"},{"id":898,"processName":"测试任务_None","asinList":"B08XJ8J7SZ","requiredInfo":["price"],"platform":"Amazon","timeCycle":"daily","createTime":"2025-08-12T12:04:31.388313","updateTime":"2025-08-12T12:04:31.388313","status":"ACTIVE","userId":4,"username":"admin1155"},{"id":888,"processName":"并发测试","asinList":"B000000001","requiredInfo":["price"],"platform":"Amazon","timeCycle":"daily","createTime":"2025-08-12T12:04:25.872556","updateTime":"2025-08-12T12:04:25.872556","status":"ACTIVE","userId":4,"username":"admin1155"},{"id":881,"processName":"测试任务_y03lm2","asinList":"B08XJ8J7SZ,B08LGD78Q5","requiredInfo":["price","review"],"platform":"Amazon","timeCycle":"daily","createTime":"2025-08-12T12:04:23.814433","updateTime":"2025-08-12T12:04:23.814433","status":"ACTIVE","userId":4,"username":"admin1155"},{"id":870,"processName":"自动化测试 75","asinList":"B08XJ8J7SZ,B08LGD78Q5","requiredInfo":["price","seller_rank","review"],"platform":"Amazon","timeCycle":"monthly","createTime":"2025-08-11T17:11:16.298569","updateTime":"2025-08-11T17:11:16.298569","status":"ACTIVE","userId":158,"username":"test001"},{"id":869,"processName":"自动化测试 74","asinList":"B08XJ8J7SZ,B08LGD78Q5","requiredInfo":["price","seller_rank","review"],"platform":"Amazon","timeCycle":"weekly","createTime":"2025-08-11T17:11:15.332279","updateTime":"2025-08-11T17:11:15.332279","status":"ACTIVE","userId":158,"username":"test001"}],"pageable":{"pageNumber":0,"pageSize":10,"sort":{"empty":false,"sorted":true,"unsorted":false},"offset":0,"paged":true,"unpaged":false},"last":false,"totalPages":3,"totalElements":30,"size":10,"number":0,"first":true,"numberOfElements":10,"sort":{"empty":false,"sorted":true,"unsorted":false},"empty":false}}