{"success":true,"message":"任务列表获取成功","data":{"content":[{"id":617,"processName":"测试任务_None","asinList":"B08XJ8J7SZ","requiredInfo":["price"],"platform":"Amazon","timeCycle":"daily","createTime":"2025-08-08T13:10:43.189287","updateTime":"2025-08-08T13:10:43.189287","status":"ACTIVE","userId":4,"username":"admin1155"},{"id":613,"processName":"并发测试","asinList":"B000000001","requiredInfo":["price"],"platform":"Amazon","timeCycle":"daily","createTime":"2025-08-08T13:10:42.242637","updateTime":"2025-08-08T13:10:42.242637","status":"ACTIVE","userId":4,"username":"admin1155"},{"id":609,"processName":"亚马逊监控","asinList":"B08XJ8J7SZ,B08LGD78Q5","requiredInfo":[],"platform":"Amazon","timeCycle":"daily","createTime":"2025-08-08T13:10:41.408032","updateTime":"2025-08-08T13:10:41.408032","status":"ACTIVE","userId":4,"username":"admin1155"},{"id":607,"processName":"亚马逊监控","asinList":"","requiredInfo":["price"],"platform":"Amazon","timeCycle":"daily","createTime":"2025-08-08T13:10:41.155535","updateTime":"2025-08-08T13:10:41.155535","status":"ACTIVE","userId":4,"username":"admin1155"},{"id":605,"processName":"格式错误测试","asinList":"B08XJ8J7SZ B08LGD78Q5","requiredInfo":["price"],"platform":"Amazon","timeCycle":"daily","createTime":"2025-08-08T13:10:40.616794","updateTime":"2025-08-08T13:10:40.616794","status":"ACTIVE","userId":4,"username":"admin1155"},{"id":603,"processName":"测试任务_xijy5s","asinList":"B08XJ8J7SZ,B08LGD78Q5","requiredInfo":["price","review"],"platform":"Amazon","timeCycle":"daily","createTime":"2025-08-08T13:10:40.381049","updateTime":"2025-08-08T13:10:40.381049","status":"ACTIVE","userId":4,"username":"admin1155"},{"id":591,"processName":"并发测试","asinList":"B000000001","requiredInfo":["price"],"platform":"Amazon","timeCycle":"daily","createTime":"2025-08-08T11:13:32.917254","updateTime":"2025-08-08T11:13:32.917254","status":"ACTIVE","userId":4,"username":"admin1155"},{"id":587,"processName":"亚马逊监控","asinList":"B08XJ8J7SZ,B08LGD78Q5","requiredInfo":[],"platform":"Amazon","timeCycle":"daily","createTime":"2025-08-08T11:13:31.226947","updateTime":"2025-08-08T11:13:31.226947","status":"ACTIVE","userId":4,"username":"admin1155"},{"id":585,"processName":"亚马逊监控","asinList":"","requiredInfo":["price"],"platform":"Amazon","timeCycle":"daily","createTime":"2025-08-08T11:13:30.467862","updateTime":"2025-08-08T11:13:30.467862","status":"ACTIVE","userId":4,"username":"admin1155"},{"id":583,"processName":"格式错误测试","asinList":"B08XJ8J7SZ B08LGD78Q5","requiredInfo":["price"],"platform":"Amazon","timeCycle":"daily","createTime":"2025-08-08T11:13:29.635123","updateTime":"2025-08-08T11:13:29.635123","status":"ACTIVE","userId":4,"username":"admin1155"}],"pageable":{"pageNumber":0,"pageSize":10,"sort":{"empty":false,"sorted":true,"unsorted":false},"offset":0,"paged":true,"unpaged":false},"totalPages":18,"totalElements":175,"last":false,"size":10,"number":0,"numberOfElements":10,"sort":{"empty":false,"sorted":true,"unsorted":false},"first":true,"empty":false}}