{"success":true,"message":"任务列表获取成功","data":{"content":[{"id":309,"processName":"测试任务_None","asinList":"B08XJ8J7SZ","requiredInfo":["price"],"platform":"Amazon","timeCycle":"daily","createTime":"2025-08-01T03:04:48.333317","updateTime":"2025-08-01T03:04:48.333317","status":"ACTIVE","userId":4,"username":"admin1155"},{"id":305,"processName":"并发测试","asinList":"B000000001","requiredInfo":["price"],"platform":"Amazon","timeCycle":"daily","createTime":"2025-08-01T03:04:47.371937","updateTime":"2025-08-01T03:04:47.371937","status":"ACTIVE","userId":4,"username":"admin1155"},{"id":301,"processName":"亚马逊监控","asinList":"B08XJ8J7SZ,B08LGD78Q5","requiredInfo":[],"platform":"Amazon","timeCycle":"daily","createTime":"2025-08-01T03:04:46.617497","updateTime":"2025-08-01T03:04:46.617497","status":"ACTIVE","userId":4,"username":"admin1155"},{"id":299,"processName":"亚马逊监控","asinList":"","requiredInfo":["price"],"platform":"Amazon","timeCycle":"daily","createTime":"2025-08-01T03:04:46.377828","updateTime":"2025-08-01T03:04:46.377828","status":"ACTIVE","userId":4,"username":"admin1155"},{"id":297,"processName":"格式错误测试","asinList":"B08XJ8J7SZ B08LGD78Q5","requiredInfo":["price"],"platform":"Amazon","timeCycle":"daily","createTime":"2025-08-01T03:04:45.857722","updateTime":"2025-08-01T03:04:45.857722","status":"ACTIVE","userId":4,"username":"admin1155"},{"id":295,"processName":"测试任务_lmgy27","asinList":"B08XJ8J7SZ,B08LGD78Q5","requiredInfo":["price","review"],"platform":"Amazon","timeCycle":"daily","createTime":"2025-08-01T03:04:45.616643","updateTime":"2025-08-01T03:04:45.616643","status":"ACTIVE","userId":4,"username":"admin1155"},{"id":283,"processName":"并发测试","asinList":"B000000001","requiredInfo":["price"],"platform":"Amazon","timeCycle":"daily","createTime":"2025-08-01T02:57:39.054178","updateTime":"2025-08-01T02:57:39.054178","status":"ACTIVE","userId":4,"username":"admin1155"},{"id":279,"processName":"亚马逊监控","asinList":"B08XJ8J7SZ,B08LGD78Q5","requiredInfo":[],"platform":"Amazon","timeCycle":"daily","createTime":"2025-08-01T02:57:38.277367","updateTime":"2025-08-01T02:57:38.277367","status":"ACTIVE","userId":4,"username":"admin1155"},{"id":277,"processName":"亚马逊监控","asinList":"","requiredInfo":["price"],"platform":"Amazon","timeCycle":"daily","createTime":"2025-08-01T02:57:37.983096","updateTime":"2025-08-01T02:57:37.983096","status":"ACTIVE","userId":4,"username":"admin1155"},{"id":275,"processName":"格式错误测试","asinList":"B08XJ8J7SZ B08LGD78Q5","requiredInfo":["price"],"platform":"Amazon","timeCycle":"daily","createTime":"2025-08-01T02:57:37.409371","updateTime":"2025-08-01T02:57:37.409371","status":"ACTIVE","userId":4,"username":"admin1155"}],"pageable":{"pageNumber":0,"pageSize":10,"sort":{"empty":false,"sorted":true,"unsorted":false},"offset":0,"paged":true,"unpaged":false},"last":false,"totalElements":103,"totalPages":11,"size":10,"number":0,"first":true,"numberOfElements":10,"sort":{"empty":false,"sorted":true,"unsorted":false},"empty":false}}