{"success":true,"message":"任务列表获取成功","data":{"content":[{"id":353,"processName":"测试任务_None","asinList":"B08XJ8J7SZ","requiredInfo":["price"],"platform":"Amazon","timeCycle":"daily","createTime":"2025-08-01T03:20:49.412866","updateTime":"2025-08-01T03:20:49.412866","status":"ACTIVE","userId":4,"username":"admin1155"},{"id":349,"processName":"并发测试","asinList":"B000000001","requiredInfo":["price"],"platform":"Amazon","timeCycle":"daily","createTime":"2025-08-01T03:20:48.441146","updateTime":"2025-08-01T03:20:48.441146","status":"ACTIVE","userId":4,"username":"admin1155"},{"id":345,"processName":"亚马逊监控","asinList":"B08XJ8J7SZ,B08LGD78Q5","requiredInfo":[],"platform":"Amazon","timeCycle":"daily","createTime":"2025-08-01T03:20:47.755764","updateTime":"2025-08-01T03:20:47.755764","status":"ACTIVE","userId":4,"username":"admin1155"},{"id":343,"processName":"亚马逊监控","asinList":"","requiredInfo":["price"],"platform":"Amazon","timeCycle":"daily","createTime":"2025-08-01T03:20:47.49778","updateTime":"2025-08-01T03:20:47.49778","status":"ACTIVE","userId":4,"username":"admin1155"},{"id":341,"processName":"格式错误测试","asinList":"B08XJ8J7SZ B08LGD78Q5","requiredInfo":["price"],"platform":"Amazon","timeCycle":"daily","createTime":"2025-08-01T03:20:47.050046","updateTime":"2025-08-01T03:20:47.050046","status":"ACTIVE","userId":4,"username":"admin1155"},{"id":339,"processName":"测试任务_mf31w6","asinList":"B08XJ8J7SZ,B08LGD78Q5","requiredInfo":["price","review"],"platform":"Amazon","timeCycle":"daily","createTime":"2025-08-01T03:20:46.828001","updateTime":"2025-08-01T03:20:46.828001","status":"ACTIVE","userId":4,"username":"admin1155"},{"id":327,"processName":"并发测试","asinList":"B000000001","requiredInfo":["price"],"platform":"Amazon","timeCycle":"daily","createTime":"2025-08-01T03:14:37.072631","updateTime":"2025-08-01T03:14:37.072631","status":"ACTIVE","userId":4,"username":"admin1155"},{"id":323,"processName":"亚马逊监控","asinList":"B08XJ8J7SZ,B08LGD78Q5","requiredInfo":[],"platform":"Amazon","timeCycle":"daily","createTime":"2025-08-01T03:14:36.399385","updateTime":"2025-08-01T03:14:36.399385","status":"ACTIVE","userId":4,"username":"admin1155"},{"id":321,"processName":"亚马逊监控","asinList":"","requiredInfo":["price"],"platform":"Amazon","timeCycle":"daily","createTime":"2025-08-01T03:14:36.162202","updateTime":"2025-08-01T03:14:36.162202","status":"ACTIVE","userId":4,"username":"admin1155"},{"id":319,"processName":"格式错误测试","asinList":"B08XJ8J7SZ B08LGD78Q5","requiredInfo":["price"],"platform":"Amazon","timeCycle":"daily","createTime":"2025-08-01T03:14:35.54348","updateTime":"2025-08-01T03:14:35.54348","status":"ACTIVE","userId":4,"username":"admin1155"}],"pageable":{"pageNumber":0,"pageSize":10,"sort":{"empty":false,"sorted":true,"unsorted":false},"offset":0,"paged":true,"unpaged":false},"last":false,"totalElements":113,"totalPages":12,"size":10,"number":0,"first":true,"numberOfElements":10,"sort":{"empty":false,"sorted":true,"unsorted":false},"empty":false}}