{"success":true,"message":"任务列表获取成功","data":{"content":[{"id":595,"processName":"测试任务_None","asinList":"B08XJ8J7SZ","requiredInfo":["price"],"platform":"Amazon","timeCycle":"daily","createTime":"2025-08-08T11:13:35.05223","updateTime":"2025-08-08T11:13:35.05223","status":"ACTIVE","userId":4,"username":"admin1155"},{"id":591,"processName":"并发测试","asinList":"B000000001","requiredInfo":["price"],"platform":"Amazon","timeCycle":"daily","createTime":"2025-08-08T11:13:32.917254","updateTime":"2025-08-08T11:13:32.917254","status":"ACTIVE","userId":4,"username":"admin1155"},{"id":587,"processName":"亚马逊监控","asinList":"B08XJ8J7SZ,B08LGD78Q5","requiredInfo":[],"platform":"Amazon","timeCycle":"daily","createTime":"2025-08-08T11:13:31.226947","updateTime":"2025-08-08T11:13:31.226947","status":"ACTIVE","userId":4,"username":"admin1155"},{"id":585,"processName":"亚马逊监控","asinList":"","requiredInfo":["price"],"platform":"Amazon","timeCycle":"daily","createTime":"2025-08-08T11:13:30.467862","updateTime":"2025-08-08T11:13:30.467862","status":"ACTIVE","userId":4,"username":"admin1155"},{"id":583,"processName":"格式错误测试","asinList":"B08XJ8J7SZ B08LGD78Q5","requiredInfo":["price"],"platform":"Amazon","timeCycle":"daily","createTime":"2025-08-08T11:13:29.635123","updateTime":"2025-08-08T11:13:29.635123","status":"ACTIVE","userId":4,"username":"admin1155"},{"id":581,"processName":"测试任务_cd8snl","asinList":"B08XJ8J7SZ,B08LGD78Q5","requiredInfo":["price","review"],"platform":"Amazon","timeCycle":"daily","createTime":"2025-08-08T11:13:29.180443","updateTime":"2025-08-08T11:13:29.180443","status":"ACTIVE","userId":4,"username":"admin1155"},{"id":569,"processName":"并发测试","asinList":"B000000001","requiredInfo":["price"],"platform":"Amazon","timeCycle":"daily","createTime":"2025-08-08T10:53:15.251084","updateTime":"2025-08-08T10:53:15.251084","status":"ACTIVE","userId":4,"username":"admin1155"},{"id":565,"processName":"亚马逊监控","asinList":"B08XJ8J7SZ,B08LGD78Q5","requiredInfo":[],"platform":"Amazon","timeCycle":"daily","createTime":"2025-08-08T10:53:13.772853","updateTime":"2025-08-08T10:53:13.772853","status":"ACTIVE","userId":4,"username":"admin1155"},{"id":563,"processName":"亚马逊监控","asinList":"","requiredInfo":["price"],"platform":"Amazon","timeCycle":"daily","createTime":"2025-08-08T10:53:13.371029","updateTime":"2025-08-08T10:53:13.371029","status":"ACTIVE","userId":4,"username":"admin1155"},{"id":561,"processName":"格式错误测试","asinList":"B08XJ8J7SZ B08LGD78Q5","requiredInfo":["price"],"platform":"Amazon","timeCycle":"daily","createTime":"2025-08-08T10:53:12.337257","updateTime":"2025-08-08T10:53:12.337257","status":"ACTIVE","userId":4,"username":"admin1155"}],"pageable":{"pageNumber":0,"pageSize":10,"sort":{"empty":false,"sorted":true,"unsorted":false},"offset":0,"paged":true,"unpaged":false},"totalPages":17,"totalElements":170,"last":false,"size":10,"number":0,"numberOfElements":10,"sort":{"empty":false,"sorted":true,"unsorted":false},"first":true,"empty":false}}