{"success":true,"message":"任务列表获取成功","data":{"content":[{"id":243,"processName":"测试任务","asinList":"B08XJ8J7SZ","requiredInfo":["price"],"platform":"Amazon","timeCycle":"daily","createTime":"2025-08-01T02:36:20.065377","updateTime":"2025-08-01T02:36:20.065377","status":"ACTIVE","userId":4,"username":"admin1155"},{"id":242,"processName":"并发测试","asinList":"B000000001","requiredInfo":["price"],"platform":"Amazon","timeCycle":"daily","createTime":"2025-08-01T02:36:19.765199","updateTime":"2025-08-01T02:36:19.765199","status":"ACTIVE","userId":4,"username":"admin1155"},{"id":241,"processName":"亚马逊监控","asinList":"B08XJ8J7SZ,B08LGD78Q5","requiredInfo":[],"platform":"Amazon","timeCycle":"daily","createTime":"2025-08-01T02:36:18.492063","updateTime":"2025-08-01T02:36:18.492063","status":"ACTIVE","userId":4,"username":"admin1155"},{"id":240,"processName":"亚马逊监控","asinList":"","requiredInfo":["price"],"platform":"Amazon","timeCycle":"daily","createTime":"2025-08-01T02:36:18.009476","updateTime":"2025-08-01T02:36:18.009476","status":"ACTIVE","userId":4,"username":"admin1155"},{"id":239,"processName":"格式错误测试","asinList":"B08XJ8J7SZ B08LGD78Q5","requiredInfo":["price"],"platform":"Amazon","timeCycle":"daily","createTime":"2025-08-01T02:36:17.064734","updateTime":"2025-08-01T02:36:17.064734","status":"ACTIVE","userId":4,"username":"admin1155"},{"id":238,"processName":"测试任务_d38sw8","asinList":"B08XJ8J7SZ,B08LGD78Q5","requiredInfo":["price","review"],"platform":"Amazon","timeCycle":"daily","createTime":"2025-08-01T02:36:16.759411","updateTime":"2025-08-01T02:36:16.759411","status":"ACTIVE","userId":4,"username":"admin1155"},{"id":237,"processName":"测试任务","asinList":"B08XJ8J7SZ","requiredInfo":["price"],"platform":"Amazon","timeCycle":"daily","createTime":"2025-08-01T02:22:50.470293","updateTime":"2025-08-01T02:22:50.470293","status":"ACTIVE","userId":4,"username":"admin1155"},{"id":236,"processName":"测试任务","asinList":"B08XJ8J7SZ","requiredInfo":["price"],"platform":"Amazon","timeCycle":"daily","createTime":"2025-07-31T23:45:05.08244","updateTime":"2025-07-31T23:45:05.08244","status":"ACTIVE","userId":4,"username":"admin1155"},{"id":235,"processName":"测试任务","asinList":"B08XJ8J7SZ","requiredInfo":["price"],"platform":"Amazon","timeCycle":"daily","createTime":"2025-07-31T23:40:47.584891","updateTime":"2025-07-31T23:40:47.584891","status":"ACTIVE","userId":4,"username":"admin1155"},{"id":234,"processName":"测试任务","asinList":"B08XJ8J7SZ","requiredInfo":["price"],"platform":"Amazon","timeCycle":"daily","createTime":"2025-07-31T23:38:07.955333","updateTime":"2025-07-31T23:38:07.955333","status":"ACTIVE","userId":4,"username":"admin1155"}],"pageable":{"pageNumber":0,"pageSize":10,"sort":{"empty":false,"sorted":true,"unsorted":false},"offset":0,"paged":true,"unpaged":false},"last":false,"totalElements":83,"totalPages":9,"size":10,"number":0,"first":true,"numberOfElements":10,"sort":{"empty":false,"sorted":true,"unsorted":false},"empty":false}}