{"success":true,"message":"任务列表获取成功","data":{"content":[{"id":769,"processName":"测试任务_None","asinList":"B08XJ8J7SZ","requiredInfo":["price"],"platform":"Amazon","timeCycle":"daily","createTime":"2025-08-08T16:42:48.808286","updateTime":"2025-08-08T16:42:48.808286","status":"ACTIVE","userId":4,"username":"admin1155"},{"id":765,"processName":"并发测试","asinList":"B000000001","requiredInfo":["price"],"platform":"Amazon","timeCycle":"daily","createTime":"2025-08-08T16:42:47.733467","updateTime":"2025-08-08T16:42:47.733467","status":"ACTIVE","userId":4,"username":"admin1155"},{"id":758,"processName":"测试任务_io7g3a","asinList":"B08XJ8J7SZ,B08LGD78Q5","requiredInfo":["price","review"],"platform":"Amazon","timeCycle":"daily","createTime":"2025-08-08T16:42:46.342467","updateTime":"2025-08-08T16:42:46.342467","status":"ACTIVE","userId":4,"username":"admin1155"},{"id":746,"processName":"并发测试","asinList":"B000000001","requiredInfo":["price"],"platform":"Amazon","timeCycle":"daily","createTime":"2025-08-08T16:08:27.885067","updateTime":"2025-08-08T16:08:27.885067","status":"ACTIVE","userId":4,"username":"admin1155"},{"id":739,"processName":"测试任务_nshsx3","asinList":"B08XJ8J7SZ,B08LGD78Q5","requiredInfo":["price","review"],"platform":"Amazon","timeCycle":"daily","createTime":"2025-08-08T16:08:26.668724","updateTime":"2025-08-08T16:08:26.668724","status":"ACTIVE","userId":4,"username":"admin1155"},{"id":727,"processName":"并发测试","asinList":"B000000001","requiredInfo":["price"],"platform":"Amazon","timeCycle":"daily","createTime":"2025-08-08T15:58:17.100112","updateTime":"2025-08-08T15:58:17.100112","status":"ACTIVE","userId":4,"username":"admin1155"},{"id":720,"processName":"测试任务_y8tkmc","asinList":"B08XJ8J7SZ,B08LGD78Q5","requiredInfo":["price","review"],"platform":"Amazon","timeCycle":"daily","createTime":"2025-08-08T15:58:15.917258","updateTime":"2025-08-08T15:58:15.917258","status":"ACTIVE","userId":4,"username":"admin1155"},{"id":708,"processName":"并发测试","asinList":"B000000001","requiredInfo":["price"],"platform":"Amazon","timeCycle":"daily","createTime":"2025-08-08T15:55:11.285015","updateTime":"2025-08-08T15:55:11.285015","status":"ACTIVE","userId":4,"username":"admin1155"},{"id":701,"processName":"测试任务_6rr7cc","asinList":"B08XJ8J7SZ,B08LGD78Q5","requiredInfo":["price","review"],"platform":"Amazon","timeCycle":"daily","createTime":"2025-08-08T15:55:10.003637","updateTime":"2025-08-08T15:55:10.003637","status":"ACTIVE","userId":4,"username":"admin1155"},{"id":689,"processName":"并发测试","asinList":"B000000001","requiredInfo":["price"],"platform":"Amazon","timeCycle":"daily","createTime":"2025-08-08T15:02:59.134592","updateTime":"2025-08-08T15:02:59.134592","status":"ACTIVE","userId":4,"username":"admin1155"}],"pageable":{"pageNumber":0,"pageSize":10,"sort":{"unsorted":false,"sorted":true,"empty":false},"offset":0,"unpaged":false,"paged":true},"totalElements":14,"totalPages":2,"last":false,"numberOfElements":10,"sort":{"unsorted":false,"sorted":true,"empty":false},"size":10,"number":0,"first":true,"empty":false}}