{"success":true,"message":"任务列表获取成功","data":{"content":[{"id":529,"processName":"测试任务_None","asinList":"B08XJ8J7SZ","requiredInfo":["price"],"platform":"Amazon","timeCycle":"daily","createTime":"2025-08-08T10:37:59.627612","updateTime":"2025-08-08T10:37:59.627612","status":"ACTIVE","userId":4,"username":"admin1155"},{"id":525,"processName":"并发测试","asinList":"B000000001","requiredInfo":["price"],"platform":"Amazon","timeCycle":"daily","createTime":"2025-08-08T10:37:57.984203","updateTime":"2025-08-08T10:37:57.984203","status":"ACTIVE","userId":4,"username":"admin1155"},{"id":521,"processName":"亚马逊监控","asinList":"B08XJ8J7SZ,B08LGD78Q5","requiredInfo":[],"platform":"Amazon","timeCycle":"daily","createTime":"2025-08-08T10:37:56.487646","updateTime":"2025-08-08T10:37:56.487646","status":"ACTIVE","userId":4,"username":"admin1155"},{"id":519,"processName":"亚马逊监控","asinList":"","requiredInfo":["price"],"platform":"Amazon","timeCycle":"daily","createTime":"2025-08-08T10:37:56.124967","updateTime":"2025-08-08T10:37:56.124967","status":"ACTIVE","userId":4,"username":"admin1155"},{"id":517,"processName":"格式错误测试","asinList":"B08XJ8J7SZ B08LGD78Q5","requiredInfo":["price"],"platform":"Amazon","timeCycle":"daily","createTime":"2025-08-08T10:37:55.454131","updateTime":"2025-08-08T10:37:55.454131","status":"ACTIVE","userId":4,"username":"admin1155"},{"id":515,"processName":"测试任务_5z4zo5","asinList":"B08XJ8J7SZ,B08LGD78Q5","requiredInfo":["price","review"],"platform":"Amazon","timeCycle":"daily","createTime":"2025-08-08T10:37:55.1105","updateTime":"2025-08-08T10:37:55.1105","status":"ACTIVE","userId":4,"username":"admin1155"},{"id":503,"processName":"并发测试","asinList":"B000000001","requiredInfo":["price"],"platform":"Amazon","timeCycle":"daily","createTime":"2025-08-01T03:48:02.550206","updateTime":"2025-08-01T03:48:02.550206","status":"ACTIVE","userId":4,"username":"admin1155"},{"id":499,"processName":"亚马逊监控","asinList":"B08XJ8J7SZ,B08LGD78Q5","requiredInfo":[],"platform":"Amazon","timeCycle":"daily","createTime":"2025-08-01T03:48:01.903945","updateTime":"2025-08-01T03:48:01.903945","status":"ACTIVE","userId":4,"username":"admin1155"},{"id":497,"processName":"亚马逊监控","asinList":"","requiredInfo":["price"],"platform":"Amazon","timeCycle":"daily","createTime":"2025-08-01T03:48:01.688411","updateTime":"2025-08-01T03:48:01.688411","status":"ACTIVE","userId":4,"username":"admin1155"},{"id":495,"processName":"格式错误测试","asinList":"B08XJ8J7SZ B08LGD78Q5","requiredInfo":["price"],"platform":"Amazon","timeCycle":"daily","createTime":"2025-08-01T03:48:01.243475","updateTime":"2025-08-01T03:48:01.243475","status":"ACTIVE","userId":4,"username":"admin1155"}],"pageable":{"pageNumber":0,"pageSize":10,"sort":{"empty":false,"sorted":true,"unsorted":false},"offset":0,"paged":true,"unpaged":false},"last":false,"totalElements":153,"totalPages":16,"size":10,"number":0,"first":true,"numberOfElements":10,"sort":{"empty":false,"sorted":true,"unsorted":false},"empty":false}}