{"success":true,"message":"任务列表获取成功","data":{"content":[{"id":331,"processName":"测试任务_None","asinList":"B08XJ8J7SZ","requiredInfo":["price"],"platform":"Amazon","timeCycle":"daily","createTime":"2025-08-01T03:14:37.969299","updateTime":"2025-08-01T03:14:37.969299","status":"ACTIVE","userId":4,"username":"admin1155"},{"id":327,"processName":"并发测试","asinList":"B000000001","requiredInfo":["price"],"platform":"Amazon","timeCycle":"daily","createTime":"2025-08-01T03:14:37.072631","updateTime":"2025-08-01T03:14:37.072631","status":"ACTIVE","userId":4,"username":"admin1155"},{"id":323,"processName":"亚马逊监控","asinList":"B08XJ8J7SZ,B08LGD78Q5","requiredInfo":[],"platform":"Amazon","timeCycle":"daily","createTime":"2025-08-01T03:14:36.399385","updateTime":"2025-08-01T03:14:36.399385","status":"ACTIVE","userId":4,"username":"admin1155"},{"id":321,"processName":"亚马逊监控","asinList":"","requiredInfo":["price"],"platform":"Amazon","timeCycle":"daily","createTime":"2025-08-01T03:14:36.162202","updateTime":"2025-08-01T03:14:36.162202","status":"ACTIVE","userId":4,"username":"admin1155"},{"id":319,"processName":"格式错误测试","asinList":"B08XJ8J7SZ B08LGD78Q5","requiredInfo":["price"],"platform":"Amazon","timeCycle":"daily","createTime":"2025-08-01T03:14:35.54348","updateTime":"2025-08-01T03:14:35.54348","status":"ACTIVE","userId":4,"username":"admin1155"},{"id":317,"processName":"测试任务_iyu0qh","asinList":"B08XJ8J7SZ,B08LGD78Q5","requiredInfo":["price","review"],"platform":"Amazon","timeCycle":"daily","createTime":"2025-08-01T03:14:35.343863","updateTime":"2025-08-01T03:14:35.343863","status":"ACTIVE","userId":4,"username":"admin1155"},{"id":305,"processName":"并发测试","asinList":"B000000001","requiredInfo":["price"],"platform":"Amazon","timeCycle":"daily","createTime":"2025-08-01T03:04:47.371937","updateTime":"2025-08-01T03:04:47.371937","status":"ACTIVE","userId":4,"username":"admin1155"},{"id":301,"processName":"亚马逊监控","asinList":"B08XJ8J7SZ,B08LGD78Q5","requiredInfo":[],"platform":"Amazon","timeCycle":"daily","createTime":"2025-08-01T03:04:46.617497","updateTime":"2025-08-01T03:04:46.617497","status":"ACTIVE","userId":4,"username":"admin1155"},{"id":299,"processName":"亚马逊监控","asinList":"","requiredInfo":["price"],"platform":"Amazon","timeCycle":"daily","createTime":"2025-08-01T03:04:46.377828","updateTime":"2025-08-01T03:04:46.377828","status":"ACTIVE","userId":4,"username":"admin1155"},{"id":297,"processName":"格式错误测试","asinList":"B08XJ8J7SZ B08LGD78Q5","requiredInfo":["price"],"platform":"Amazon","timeCycle":"daily","createTime":"2025-08-01T03:04:45.857722","updateTime":"2025-08-01T03:04:45.857722","status":"ACTIVE","userId":4,"username":"admin1155"}],"pageable":{"pageNumber":0,"pageSize":10,"sort":{"empty":false,"sorted":true,"unsorted":false},"offset":0,"paged":true,"unpaged":false},"last":false,"totalElements":108,"totalPages":11,"size":10,"number":0,"first":true,"numberOfElements":10,"sort":{"empty":false,"sorted":true,"unsorted":false},"empty":false}}