{"success":true,"message":"任务列表获取成功","data":{"content":[{"id":892,"processName":"测试任务_None","asinList":"B08XJ8J7SZ","requiredInfo":["price"],"platform":"Amazon","timeCycle":"daily","createTime":"2025-08-12T12:04:27.475134","updateTime":"2025-08-12T12:04:27.475134","status":"ACTIVE","userId":4,"username":"admin1155"},{"id":888,"processName":"并发测试","asinList":"B000000001","requiredInfo":["price"],"platform":"Amazon","timeCycle":"daily","createTime":"2025-08-12T12:04:25.872556","updateTime":"2025-08-12T12:04:25.872556","status":"ACTIVE","userId":4,"username":"admin1155"},{"id":881,"processName":"测试任务_y03lm2","asinList":"B08XJ8J7SZ,B08LGD78Q5","requiredInfo":["price","review"],"platform":"Amazon","timeCycle":"daily","createTime":"2025-08-12T12:04:23.814433","updateTime":"2025-08-12T12:04:23.814433","status":"ACTIVE","userId":4,"username":"admin1155"},{"id":870,"processName":"自动化测试 75","asinList":"B08XJ8J7SZ,B08LGD78Q5","requiredInfo":["price","seller_rank","review"],"platform":"Amazon","timeCycle":"monthly","createTime":"2025-08-11T17:11:16.298569","updateTime":"2025-08-11T17:11:16.298569","status":"ACTIVE","userId":158,"username":"test001"},{"id":869,"processName":"自动化测试 74","asinList":"B08XJ8J7SZ,B08LGD78Q5","requiredInfo":["price","seller_rank","review"],"platform":"Amazon","timeCycle":"weekly","createTime":"2025-08-11T17:11:15.332279","updateTime":"2025-08-11T17:11:15.332279","status":"ACTIVE","userId":158,"username":"test001"},{"id":868,"processName":"自动化测试 73","asinList":"B08XJ8J7SZ,B08LGD78Q5","requiredInfo":["price","seller_rank","review"],"platform":"Amazon","timeCycle":"daily","createTime":"2025-08-11T17:11:14.429697","updateTime":"2025-08-11T17:11:14.429697","status":"ACTIVE","userId":158,"username":"test001"},{"id":858,"processName":"自动化测试 63","asinList":"B08XJ8J7SZ,B08LGD78Q5","requiredInfo":["seller_rank","review"],"platform":"Amazon","timeCycle":"monthly","createTime":"2025-08-11T17:11:05.403059","updateTime":"2025-08-11T17:11:05.403059","status":"ACTIVE","userId":158,"username":"test001"},{"id":857,"processName":"自动化测试 62","asinList":"B08XJ8J7SZ,B08LGD78Q5","requiredInfo":["seller_rank","review"],"platform":"Amazon","timeCycle":"weekly","createTime":"2025-08-11T17:11:04.53075","updateTime":"2025-08-11T17:11:04.53075","status":"ACTIVE","userId":158,"username":"test001"},{"id":856,"processName":"自动化测试 61","asinList":"B08XJ8J7SZ,B08LGD78Q5","requiredInfo":["seller_rank","review"],"platform":"Amazon","timeCycle":"daily","createTime":"2025-08-11T17:11:03.629831","updateTime":"2025-08-11T17:11:03.629831","status":"ACTIVE","userId":158,"username":"test001"},{"id":846,"processName":"自动化测试 51","asinList":"B08XJ8J7SZ,B08LGD78Q5","requiredInfo":["price","review"],"platform":"Amazon","timeCycle":"monthly","createTime":"2025-08-11T17:10:54.121616","updateTime":"2025-08-11T17:10:54.121616","status":"ACTIVE","userId":158,"username":"test001"}],"pageable":{"pageNumber":0,"pageSize":10,"sort":{"empty":false,"sorted":true,"unsorted":false},"offset":0,"paged":true,"unpaged":false},"last":false,"totalPages":3,"totalElements":25,"size":10,"number":0,"first":true,"numberOfElements":10,"sort":{"empty":false,"sorted":true,"unsorted":false},"empty":false}}